…
```r
# List all event types and their frequency
evtypeFreq <- stromData %>% 
    group_by(EVTYPE) %>%
    summarise(levels_nr = length(EVTYPE)) %>%
    arrange(desc(levels_nr))

# frequency of event types
evtypeFreq 
```

```
## # A tibble: 985 x 2
##                EVTYPE levels_nr
##                <fctr>     <int>
##  1               HAIL    288661
##  2          TSTM WIND    219940
##  3  THUNDERSTORM WIND     82563
##  4            TORNADO     60652
##  5        FLASH FLOOD     54277
##  6              FLOOD     25326
##  7 THUNDERSTORM WINDS     20843
##  8          HIGH WIND     20212
##  9          LIGHTNING     15754
## 10         HEAVY SNOW     15708
## # ... with 975 more rows
```
…
